<svg width="22" height="272" viewBox="0 0 22 272" fill="none" xmlns="http://www.w3.org/2000/svg">
<path d="M0 0H22V136H0V0Z" fill="#1E8DF2"/>
<path d="M0 0H22V136H0V0Z" fill="black" fill-opacity="0.2"/>
<path d="M0 0H22V136H0V0Z" fill="black" fill-opacity="0.2"/>
<path d="M0 136H22V272H0V136Z" fill="#FBE201"/>
<path d="M0 136H22V272H0V136Z" fill="black" fill-opacity="0.2"/>
<path d="M0 136H22V272H0V136Z" fill="black" fill-opacity="0.2"/>
</svg>
